D:\DSProjects\assignment-three\src\main\java\common\DVD.java
D:\DSProjects\assignment-three\src\main\java\backend\MailSender.java
D:\DSProjects\assignment-three\src\main\java\backend\TextFileCreator.java
D:\DSProjects\assignment-three\src\main\java\main\InsertServlet.java
D:\DSProjects\assignment-three\src\main\java\backend\ReceiverStart.java
